Análisis de datos de COVID-19 – GeoCovid Buenos Aires
…
Diferencia de días entre fecha_inicio_sintomas y fecha_diagnostico

dif_dias_total_casos <- covid_casos_muestra |> 
  dplyr::filter(carga_provincia_nombre %in% c('CABA', 'Buenos Aires')) |> 
  mutate(dias_caso = as.numeric(difftime(fecha_diagnostico, # time1
                                         fecha_inicio_sintomas, # time2
                                         units="days"))) # logica: time1 - time2

dif_dias <- dif_dias_total_casos |> 
   dplyr::filter(!is.na(fecha_inicio_sintomas) & !is.na(fecha_diagnostico))  # CASO 4

dif_dias

# A tibble: 1,973,695 × 16
   id_evento_caso  edad edad_años_meses sexo  carga_provincia_nombre
            <int> <int> <chr>           <chr> <chr>                 
 1       10000079    55 Años            M     Buenos Aires          
 2       10000084    47 Años            M     Buenos Aires          
 3       10000087    45 Años            F     Buenos Aires          
 4       10000093    48 Años            M     Buenos Aires          
 5       10000099    54 Años            F     Buenos Aires          
 6        1000012    48 Años            M     CABA                  
 7       10000143    50 Años            M     Buenos Aires          
 8        1000015    31 Años            F     Buenos Aires          
 9       10000157    25 Años            M     Buenos Aires          
10       10000187    32 Años            M     Buenos Aires          
# ℹ 1,973,685 more rows
# ℹ 11 more variables: residencia_pais_nombre <chr>,
#   residencia_provincia_nombre <chr>, residencia_departamento_nombre <chr>,
#   fecha_inicio_sintomas <date>, fecha_diagnostico <date>,
#   fecha_internacion <date>, fecha_cui_intensivo <date>,
#   fecha_fallecimiento <date>, clasificacion <chr>,
#   clasificacion_resumen <chr>, dias_caso <dbl>
…
