Cálculo de movilidad por departamento de la provincia – GeoCovid Buenos Aires
…
  px_baires <- rbind(px_data, px_baires)
}

px_baires_w <- px_baires |>
  select(fecha, locacion, tipo_de_raster, 
         momento, hora, partido, px_mean, geom) |>
  pivot_wider(
    names_from = c(momento, hora),
    values_from = px_mean) |> # esto habria que
  mutate(px_mean_dianoche = ((mañana_8 + tarde_16)/2))

px_baires_w 

# A tibble: 272 × 9
   fecha      locacion tipo_de_raster partido                      geom mañana_8
   <date>     <chr>    <chr>          <chr>               <POLYGON [°]>    <dbl>
 1 2020-05-06 baires   pc             Capita… ((-58.44692 -34.68878, -…    -8.45
 2 2020-05-06 baires   pc             Avella… ((-58.27964 -34.67864, -…     5.46
 3 2020-05-06 baires   pc             Lomas … ((-58.34696 -34.73934, -…     5.10
 4 2020-05-06 baires   pc             Lanús   ((-58.40254 -34.65999, -…     5.16
 5 2020-05-06 baires   pc             Pergam… ((-60.45691 -33.59848, -…     4.59
 6 2020-05-06 baires   pc             Floren… ((-62.34816 -34.65378, -…     2.89
 7 2020-05-06 baires   pc             San Pe… ((-59.80947 -33.58342, -…     3.97
 8 2020-05-06 baires   pc             Barade… ((-59.22272 -33.81343, -…     4.05
 9 2020-05-06 baires   pc             Corone… ((-61.72849 -38.65709, -…     5.73
10 2020-05-06 baires   pc             Patago… ((-63.38327 -39.32849, -…     4.29
# ℹ 262 more rows
# ℹ 3 more variables: tarde_16 <dbl>, noche_0 <dbl>, px_mean_dianoche <dbl>
…
