GeoCovid Buenos Aires - rasters
…
imgs_tbl <- map_dfr(files, extract_info)

imgs_tbl

# A tibble: 196 × 8
   file             prefix indicator date       suffix month weekday weekday_num
   <chr>            <chr>  <chr>     <date>     <chr>  <chr> <chr>         <dbl>
 1 rasters//amba_7… amba   7dpc      2020-04-15 0      abril Wed               3
 2 rasters//amba_7… amba   7dpc      2020-04-16 0      abril Thu               4
 3 rasters//amba_7… amba   7dpc      2020-04-17 0      abril Fri               5
 4 rasters//amba_7… amba   7dpc      2020-04-18 0      abril Sat               6
 5 rasters//amba_7… amba   7dpc      2020-04-19 0      abril Sun               7
 6 rasters//amba_7… amba   7dpc      2020-04-20 0      abril Mon               1
 7 rasters//amba_7… amba   7dpc      2020-04-21 0      abril Tue               2
 8 rasters//amba_7… amba   7dpc      2020-04-22 0      abril Wed               3
 9 rasters//amba_7… amba   7dpc      2020-04-23 0      abril Thu               4
10 rasters//amba_7… amba   7dpc      2020-04-24 0      abril Fri               5
# ℹ 186 more rows
…
